{
	"tracks": {
		"href": "https://api.spotify.com/v1/search?offset=0&limit=5&query=BE%20FREE&type=track",
		"limit": 5,
		"next": "https://api.spotify.com/v1/search?offset=5&limit=5&query=BE%20FREE&type=track",
		"offset": 0,
		"previous": null,
		"total": 12,
		"items": {
			"album": {
				"album_type": "single",
				"artists": [
					{
						"external_urls": {
							"spotify": "https://open.spotify.com/artist/4jrjgg3OqsSLL6JuyBXR0F"
						},
						"href": "https://api.spotify.com/v1/artists/4jrjgg3OqsSLL6JuyBXR0F",
						"id": "4jrjgg3OqsSLL6JuyBXR0F",
						"name": "Siine",
						"type": "artist",
						"uri": "spotify:artist:4jrjgg3OqsSLL6JuyBXR0F"
					}
				],
				"external_urls": {
					"spotify": "https://open.spotify.com/album/4Gz2rzx93g3JBzmOdODzJi"
				},
				"href": "https://api.spotify.com/v1/albums/4Gz2rzx93g3JBzmOdODzJi",
				"id": "4Gz2rzx93g3JBzmOdODzJi",
				"images": [
					{
						"height": 640,
						"width": 640,
						"url": "https://i.scdn.co/image/ab67616d0000b273e4e80f72ef5f198709d768b0"
					},
					{
						"height": 300,
						"width": 300,
						"url": "https://i.scdn.co/image/ab67616d00001e02e4e80f72ef5f198709d768b0"
					},
					{
						"height": 64,
						"width": 64,
						"url": "https://i.scdn.co/image/ab67616d00004851e4e80f72ef5f198709d768b0"
					}
				],
				"is_playable": true,
				"name": "Be Free With Me",
				"release_date": "2018-01-19",
				"release_date_precision": "day",
				"total_tracks": 2,
				"type": "album",
				"uri": "spotify:album:4Gz2rzx93g3JBzmOdODzJi"
			},
			"artists": [
				{
					"external_urls": {
						"spotify": "https://open.spotify.com/artist/4jrjgg3OqsSLL6JuyBXR0F"
					},
					"href": "https://api.spotify.com/v1/artists/4jrjgg3OqsSLL6JuyBXR0F",
					"id": "4jrjgg3OqsSLL6JuyBXR0F",
					"name": "Siine",
					"type": "artist",
					"uri": "spotify:artist:4jrjgg3OqsSLL6JuyBXR0F"
				},
				{
					"external_urls": {
						"spotify": "https://open.spotify.com/artist/7Dgb2lOrie0vyov3oeP4H0"
					},
					"href": "https://api.spotify.com/v1/artists/7Dgb2lOrie0vyov3oeP4H0",
					"id": "7Dgb2lOrie0vyov3oeP4H0",
					"name": "Frank Moody",
					"type": "artist",
					"uri": "spotify:artist:7Dgb2lOrie0vyov3oeP4H0"
				}
			],
			"disc_number": 1,
			"duration_ms": 182750,
			"explicit": false,
			"external_ids": {
				"isrc": "SE5Q51800015"
			},
			"external_urls": {
				"spotify": "https://open.spotify.com/track/49Hjc9hB1Kld6CNCD0rmow"
			},
			"href": "https://api.spotify.com/v1/tracks/49Hjc9hB1Kld6CNCD0rmow",
			"id": "49Hjc9hB1Kld6CNCD0rmow",
			"is_local": false,
			"is_playable": true,
			"name": "Be Free With Me",
			"track_number": 1,
			"type": "track",
			"uri": "spotify:track:49Hjc9hB1Kld6CNCD0rmow"
		}
	}
}